module blockchainapp

go 1.16

require (
	github.com/Microsoft/go-winio v0.4.16 // indirect
	github.com/containerd/containerd v1.4.4 // indirect
	github.com/docker/distribution v2.7.1+incompatible // indirect
	github.com/docker/docker v20.10.6+incompatible
	github.com/docker/go-connections v0.4.0 // indirect
	github.com/docker/go-units v0.4.0 // indirect
	github.com/go-pg/pg v8.0.7+incompatible // indirect
	github.com/gogo/protobuf v1.3.2 // indirect
	github.com/google/uuid v1.2.0
	github.com/gorilla/mux v1.8.0
	github.com/jinzhu/inflection v1.0.0 // indirect
	github.com/lib/pq v1.10.0 // indirect
	github.com/mattn/go-sqlite3 v2.0.3+incompatible // indirect
	github.com/moby/term v0.0.0-20201216013528-df9cb8a40635 // indirect
	github.com/morikuni/aec v1.0.0 // indirect
	github.com/opencontainers/go-digest v1.0.0 // indirect
	github.com/opencontainers/image-spec v1.0.1 // indirect
	github.com/sirupsen/logrus v1.8.1 // indirect
	github.com/spf13/afero v1.6.0
	golang.org/x/time v0.0.0-20210220033141-f8bda1e9f3ba // indirect
	google.golang.org/grpc v1.37.0 // indirect
	gotest.tools/v3 v3.0.3 // indirect
	mellium.im/sasl v0.2.1 // indirect
)
